Capstone â€“ Bellabeat Case Study
…
5 Analyze and Share

To gain insights into how users are using our product, one of the most efficient approaches is to understand our usersâ€™ characteristics from multiple dimensions, such as how they are sleeping, how active they are, during what time period they are active, and whether they have a healthy BMI.

5.1 Sleep

To begin our analysis, I will first focus on the sleeping hours. A healthy life is strongly related to good quality sleeping. To help users to promote their health when using our product, we first need to get to know how they are sleeping.

Below we calculated each individualâ€™s daily average sleeping hours over the study period.

Average_Hour_Asleep <- DailyActivity %>% group_by(Id) %>% summarize( total = n(), average_hr_asleep = (sum(Hr_Sleep)/total))
Average_Hour_Asleep %>%
  mutate( Id = Average_Hour_Asleep$Id %>% as.character())

## # A tibble: 24 x 3
##    Id         total average_hr_asleep
##    <chr>      <int>             <dbl>
##  1 1503960366    25              6.00
##  2 1644430081     4              4.9 
##  3 1844505072     3             10.9 
##  4 1927972279     5              6.95
##  5 2026352035    28              8.44
##  6 2320127002     1              1.02
##  7 2347167796    15              7.45
##  8 3977333714    28              4.89
##  9 4020332650     8              5.82
## 10 4319703577    26              7.94
## # ... with 14 more rows
…
